{
    "index_patterns" : [
      "faas_system*"
    ],
    "settings" : { },
    "mappings" : {
      "doc" : {
        "_meta" : {
          "version" : "1.0.0"
        },
        "date_detection" : false,
        "dynamic_templates" : [
          {
            "fields" : {
              "mapping" : {
                "type" : "keyword"
              },
              "match_mapping_type" : "string",
              "path_match" : "fields.*"
            }
          },
          {
            "docker.container.labels" : {
              "mapping" : {
                "type" : "keyword"
              },
              "match_mapping_type" : "string",
              "path_match" : "docker.container.labels.*"
            }
          },
          {
            "strings_as_keyword" : {
              "mapping" : {
                "ignore_above" : 1024,
                "type" : "keyword"
              },
              "match_mapping_type" : "string"
            }
          }
        ],
        "properties" : {
          "@timestamp" : {
            "type" : "date"
          },
          "geoip" : {
            "properties" : {
              "city_name" : {
                "type" : "text",
                "fields" : {
                  "keyword" : {
                    "type" : "keyword",
                    "ignore_above" : 256
                  }
                }
              },
              "continent_name" : {
                "type" : "text",
                "fields" : {
                  "keyword" : {
                    "type" : "keyword",
                    "ignore_above" : 256
                  }
                }
              },
              "country_iso_code" : {
                "type" : "text",
                "fields" : {
                  "keyword" : {
                    "type" : "keyword",
                    "ignore_above" : 256
                  }
                }
              },
              "location" : {
                "type" : "geo_point"
              },
              "region_name" : {
                "type" : "text",
                "fields" : {
                  "keyword" : {
                    "type" : "keyword",
                    "ignore_above" : 256
                  }
                }
              }
            }
          }
        }
      }
    },
    "aliases" : { }
}

